Using the new 2016-2020 ACS estimates in R
…
born_in_mexico <- get_acs(
  geography = "state", 
  variables = "B05006_150",
* year = 2020
)
```

---

```r
born_in_mexico
```

```
## # A tibble: 52 × 5
##    GEOID NAME                 variable   estimate   moe
##    <chr> <chr>                <chr>         <dbl> <dbl>
##  1 01    Alabama              B05006_150    46927  1846
##  2 02    Alaska               B05006_150     4181   709
##  3 04    Arizona              B05006_150   510639  8028
##  4 05    Arkansas             B05006_150    60236  2182
##  5 06    California           B05006_150  3962910 25353
##  6 08    Colorado             B05006_150   215778  4888
##  7 09    Connecticut          B05006_150    28086  2144
##  8 10    Delaware             B05006_150    14616  1065
##  9 11    District of Columbia B05006_150     4026   761
## 10 12    Florida              B05006_150   257933  6418
## # … with 42 more rows
```
…
---

```r
median_age
```

```
## # A tibble: 52 × 5
##    GEOID NAME                 variable   estimate   moe
##    <chr> <chr>                <chr>         <dbl> <dbl>
##  1 01    Alabama              B01002_001     39.2   0.1
##  2 02    Alaska               B01002_001     34.6   0.2
##  3 04    Arizona              B01002_001     37.9   0.2
##  4 05    Arkansas             B01002_001     38.3   0.2
##  5 06    California           B01002_001     36.7   0.1
##  6 08    Colorado             B01002_001     36.9   0.1
##  7 09    Connecticut          B01002_001     41.1   0.2
##  8 10    Delaware             B01002_001     41     0.2
##  9 11    District of Columbia B01002_001     34.1   0.1
## 10 12    Florida              B01002_001     42.2   0.2
## # … with 42 more rows
```
…
---

```r
median_age_cbsa
```

```
## # A tibble: 939 × 5
##    GEOID NAME                             variable   estimate   moe
##    <chr> <chr>                            <chr>         <dbl> <dbl>
##  1 10100 Aberdeen, SD Micro Area          B01002_001     37.7   0.9
##  2 10140 Aberdeen, WA Micro Area          B01002_001     44.3   0.3
##  3 10180 Abilene, TX Metro Area           B01002_001     34.1   0.2
##  4 10220 Ada, OK Micro Area               B01002_001     36     0.4
##  5 10300 Adrian, MI Micro Area            B01002_001     42.1   0.4
##  6 10380 Aguadilla-Isabela, PR Metro Area B01002_001     43.5   0.2
##  7 10420 Akron, OH Metro Area             B01002_001     40.3   0.2
##  8 10460 Alamogordo, NM Micro Area        B01002_001     36.2   0.3
##  9 10500 Albany, GA Metro Area            B01002_001     37.3   0.4
## 10 10540 Albany-Lebanon, OR Metro Area    B01002_001     39.9   0.4
## # … with 929 more rows
```
…
---

```r
washtenaw_median_age
```

```
## # A tibble: 308 × 5
##    GEOID        NAME                                     variable estimate   moe
##    <chr>        <chr>                                    <chr>       <dbl> <dbl>
##  1 261614001001 Block Group 1, Census Tract 4001, Washt… B01002_…     30.9   4.4
##  2 261614001002 Block Group 2, Census Tract 4001, Washt… B01002_…     21.8   0.7
##  3 261614003001 Block Group 1, Census Tract 4003, Washt… B01002_…     21.5   0.5
##  4 261614003002 Block Group 2, Census Tract 4003, Washt… B01002_…     21.6   0.7
##  5 261614003003 Block Group 3, Census Tract 4003, Washt… B01002_…     21.1   0.4
##  6 261614004001 Block Group 1, Census Tract 4004, Washt… B01002_…     35    11.7
##  7 261614004002 Block Group 2, Census Tract 4004, Washt… B01002_…     23.7   3  
##  8 261614004003 Block Group 3, Census Tract 4004, Washt… B01002_…     50.2  10  
##  9 261614005001 Block Group 1, Census Tract 4005, Washt… B01002_…     NA    NA  
## 10 261614005002 Block Group 2, Census Tract 4005, Washt… B01002_…     21.6   0.7
## # … with 298 more rows
```
…
top10percent <- median_home_value %>%
* mutate(percentile = percent_rank(estimate)) %>%
* filter(percentile >= 0.9)
```

---

```r
top10percent
```

```
## # A tibble: 321 × 6
##    GEOID NAME                               variable   estimate   moe percentile
##    <chr> <chr>                              <chr>         <dbl> <dbl>      <dbl>
##  1 02016 Aleutians West Census Area, Alaska B25077_001   316700 61170      0.943
##  2 02020 Anchorage Municipality, Alaska     B25077_001   320100  4445      0.945
##  3 02100 Haines Borough, Alaska             B25077_001   263900 41626      0.902
##  4 02110 Juneau City and Borough, Alaska    B25077_001   355100 11524      0.959
##  5 02130 Ketchikan Gateway Borough, Alaska  B25077_001   299500 12386      0.933
##  6 02150 Kodiak Island Borough, Alaska      B25077_001   295100 22848      0.931
##  7 02220 Sitka City and Borough, Alaska     B25077_001   365800 18682      0.963
##  8 02230 Skagway Municipality, Alaska       B25077_001   397200 38489      0.973
##  9 04005 Coconino County, Arizona           B25077_001   299100 10357      0.933
## 10 04013 Maricopa County, Arizona           B25077_001   278700  1401      0.915
## # … with 311 more rows
```
…
---

```r
top10percent
```

```
## # A tibble: 321 × 7
##    GEOID county                     state   variable   estimate   moe percentile
##    <chr> <chr>                      <chr>   <chr>         <dbl> <dbl>      <dbl>
##  1 02016 Aleutians West Census Area Alaska  B25077_001   316700 61170      0.943
##  2 02020 Anchorage Municipality     Alaska  B25077_001   320100  4445      0.945
##  3 02100 Haines Borough             Alaska  B25077_001   263900 41626      0.902
##  4 02110 Juneau City and Borough    Alaska  B25077_001   355100 11524      0.959
##  5 02130 Ketchikan Gateway Borough  Alaska  B25077_001   299500 12386      0.933
##  6 02150 Kodiak Island Borough      Alaska  B25077_001   295100 22848      0.931
##  7 02220 Sitka City and Borough     Alaska  B25077_001   365800 18682      0.963
##  8 02230 Skagway Municipality       Alaska  B25077_001   397200 38489      0.973
##  9 04005 Coconino County            Arizona B25077_001   299100 10357      0.933
## 10 04013 Maricopa County            Arizona B25077_001   278700  1401      0.915
## # … with 311 more rows
```
…
```r
state_summary <- top10percent %>%
* group_by(state) %>%
* summarize(n = n()) %>%
* arrange(desc(n))
```

---

```r
state_summary
```

```
## # A tibble: 42 × 2
##    state             n
##    <chr>         <int>
##  1 California       43
##  2 Virginia         36
##  3 Colorado         30
##  4 Oregon           19
##  5 Washington       17
##  6 New Jersey       15
##  7 Maryland         14
##  8 New York         13
##  9 Massachusetts    11
## 10 Texas            11
## # … with 32 more rows
```
…
---

```r
salt_lake_grouped
```

```
## # A tibble: 424 × 4
## # Groups:   GEOID [212]
##    GEOID       sex    sum_est sum_moe
##    <chr>       <chr>    <dbl>   <dbl>
##  1 49035100100 Female      55    30.9
##  2 49035100100 Male        83    39.2
##  3 49035100200 Female     167    57.5
##  4 49035100200 Male       153    50.9
##  5 49035100306 Female     273   109. 
##  6 49035100306 Male       225    90.3
##  7 49035100307 Female     188    70.2
##  8 49035100307 Male       117    64.5
##  9 49035100308 Female     164    98.7
## 10 49035100308 Male       129    77.9
## # … with 414 more rows
```
…
---

```r
nebraska_series
```

```
## # A tibble: 279 × 6
##    GEOID NAME                      variable   estimate   moe  year
##    <chr> <chr>                     <chr>         <dbl> <dbl> <dbl>
##  1 31001 Adams County, Nebraska    B01002_001     37.5   0.5  2010
##  2 31001 Adams County, Nebraska    B01002_001     37.8   0.7  2015
##  3 31001 Adams County, Nebraska    B01002_001     38     0.7  2020
##  4 31003 Antelope County, Nebraska B01002_001     45.2   0.2  2010
##  5 31003 Antelope County, Nebraska B01002_001     46.5   0.4  2015
##  6 31003 Antelope County, Nebraska B01002_001     44.8   0.2  2020
##  7 31005 Arthur County, Nebraska   B01002_001     39.4   5.1  2010
##  8 31005 Arthur County, Nebraska   B01002_001     39.9   6.1  2015
##  9 31005 Arthur County, Nebraska   B01002_001     48     5.6  2020
## 10 31007 Banner County, Nebraska   B01002_001     46.4   4.5  2010
## # … with 269 more rows
```
…
]

---

```r
ak_income_compare
```

```
## # A tibble: 34 × 4
##    GEOID NAME                                 variable estimate
##    <chr> <chr>                                <chr>       <dbl>
##  1 02016 Aleutians West Census Area, Alaska   income15    92500
##  2 02016 Aleutians West Census Area, Alaska   income20    87443
##  3 02020 Anchorage Municipality, Alaska       income15    85534
##  4 02020 Anchorage Municipality, Alaska       income20    84813
##  5 02050 Bethel Census Area, Alaska           income15    55692
##  6 02050 Bethel Census Area, Alaska           income20    54400
##  7 02090 Fairbanks North Star Borough, Alaska income15    77590
##  8 02090 Fairbanks North Star Borough, Alaska income20    76464
##  9 02110 Juneau City and Borough, Alaska      income15    93836
## 10 02110 Juneau City and Borough, Alaska      income20    88077
## # … with 24 more rows
```
…
