Mapping 2020 US Census Data in R
…
---

```r
tx_population
```

```
## Simple feature collection with 254 features and 4 fields
## Geometry type: MULTIPOLYGON
## Dimension:     XY
## Bounding box:  xmin: -106.6456 ymin: 25.83738 xmax: -93.50829 ymax: 36.5007
## Geodetic CRS:  NAD83
## # A tibble: 254 × 5
##    GEOID NAME                   variable  value                         geometry
##    <chr> <chr>                  <chr>     <dbl>               <MULTIPOLYGON [°]>
##  1 48005 Angelina County, Texas P1_001N   86395 (((-95.00488 31.42396, -95.0033…
##  2 48225 Houston County, Texas  P1_001N   22066 (((-95.77535 31.12205, -95.7744…
##  3 48373 Polk County, Texas     P1_001N   50123 (((-95.20018 30.82457, -95.1750…
##  4 48473 Waller County, Texas   P1_001N   56794 (((-96.19178 30.13842, -96.1901…
##  5 48441 Taylor County, Texas   P1_001N  143208 (((-100.1518 32.09064, -100.151…
##  6 48055 Caldwell County, Texas P1_001N   45883 (((-97.89707 29.86437, -97.8961…
##  7 48355 Nueces County, Texas   P1_001N  353178 (((-97.11172 27.89307, -97.1083…
##  8 48273 Kleberg County, Texas  P1_001N   31040 (((-97.3178 27.49456, -97.3159 …
##  9 48489 Willacy County, Texas  P1_001N   20164 (((-97.2581 26.42544, -97.25596…
## 10 48377 Presidio County, Texas P1_001N    6131 (((-104.9801 30.62514, -104.979…
## # … with 244 more rows
```
…
