Analyzing 2020 Census Data with R and tidycensus
…
---

* Decennial Census data are returned with four columns: `GEOID`, `NAME`, `variable`, and `value`

```r
pop20
```

```
## # A tibble: 52 × 4
##    GEOID NAME                 variable    value
##    <chr> <chr>                <chr>       <dbl>
##  1 01    Alabama              P1_001N   5024279
##  2 02    Alaska               P1_001N    733391
##  3 04    Arizona              P1_001N   7151502
##  4 05    Arkansas             P1_001N   3011524
##  5 06    California           P1_001N  39538223
##  6 08    Colorado             P1_001N   5773714
##  7 09    Connecticut          P1_001N   3605944
##  8 10    Delaware             P1_001N    989948
##  9 11    District of Columbia P1_001N    689545
## 10 16    Idaho                P1_001N   1839106
## # … with 42 more rows
```
…
---

```r
table_p2
```

```
## # A tibble: 3,796 × 4
##    GEOID NAME                 variable    value
##    <chr> <chr>                <chr>       <dbl>
##  1 01    Alabama              P2_001N   5024279
##  2 02    Alaska               P2_001N    733391
##  3 04    Arizona              P2_001N   7151502
##  4 05    Arkansas             P2_001N   3011524
##  5 06    California           P2_001N  39538223
##  6 08    Colorado             P2_001N   5773714
##  7 09    Connecticut          P2_001N   3605944
##  8 10    Delaware             P2_001N    989948
##  9 11    District of Columbia P2_001N    689545
## 10 16    Idaho                P2_001N   1839106
## # … with 3,786 more rows
```
…
]

---

```r
mi_hispanic
```

```
## # A tibble: 83 × 4
##    GEOID NAME                     variable value
##    <chr> <chr>                    <chr>    <dbl>
##  1 26001 Alcona County, Michigan  P2_002N    122
##  2 26003 Alger County, Michigan   P2_002N    115
##  3 26005 Allegan County, Michigan P2_002N   9389
##  4 26007 Alpena County, Michigan  P2_002N    417
##  5 26009 Antrim County, Michigan  P2_002N    459
##  6 26011 Arenac County, Michigan  P2_002N    270
##  7 26013 Baraga County, Michigan  P2_002N    102
##  8 26015 Barry County, Michigan   P2_002N   2142
##  9 26017 Bay County, Michigan     P2_002N   5930
## 10 26019 Benzie County, Michigan  P2_002N    391
## # … with 73 more rows
```
…
---

```r
washtenaw_hispanic
```

```
## # A tibble: 107 × 4
##    GEOID       NAME                                             variable value
##    <chr>       <chr>                                            <chr>    <dbl>
##  1 26161400100 Census Tract 4001, Washtenaw County, Michigan    P2_002N    108
##  2 26161400300 Census Tract 4003, Washtenaw County, Michigan    P2_002N    271
##  3 26161400400 Census Tract 4004, Washtenaw County, Michigan    P2_002N    144
##  4 26161400500 Census Tract 4005, Washtenaw County, Michigan    P2_002N    457
##  5 26161400600 Census Tract 4006, Washtenaw County, Michigan    P2_002N    358
##  6 26161400700 Census Tract 4007, Washtenaw County, Michigan    P2_002N    121
##  7 26161400800 Census Tract 4008, Washtenaw County, Michigan    P2_002N    264
##  8 26161402100 Census Tract 4021, Washtenaw County, Michigan    P2_002N    200
##  9 26161402201 Census Tract 4022.01, Washtenaw County, Michigan P2_002N    323
## 10 26161402300 Census Tract 4023, Washtenaw County, Michigan    P2_002N     99
## # … with 97 more rows
```
…
]

---

```r
group_quarters
```

```
## # A tibble: 520 × 4
##    GEOID NAME                 variable  value
##    <chr> <chr>                <chr>     <dbl>
##  1 01    Alabama              P5_001N  127934
##  2 02    Alaska               P5_001N   30291
##  3 04    Arizona              P5_001N  160269
##  4 05    Arkansas             P5_001N   82518
##  5 06    California           P5_001N  917932
##  6 08    Colorado             P5_001N  126848
##  7 09    Connecticut          P5_001N  108002
##  8 10    Delaware             P5_001N   22745
##  9 11    District of Columbia P5_001N   40682
## 10 16    Idaho                P5_001N   49729
## # … with 510 more rows
```
…
]

---

```r
group_quarters_wide
```

```
## # A tibble: 52 × 12
##    GEOID NAME    P5_001N P5_002N P5_003N P5_004N P5_005N P5_006N P5_007N P5_008N
##    <chr> <chr>     <dbl>   <dbl>   <dbl>   <dbl>   <dbl>   <dbl>   <dbl>   <dbl>
##  1 01    Alabama  127934   70648   39749    1479   27869    1551   57286   45489
##  2 02    Alaska    30291    7177    4842     457    1781      97   23114    1472
##  3 04    Arizona  160269   89904   64154    2331   21938    1481   70365   38945
##  4 05    Arkans…   82518   48001   27079    1248   19266     408   34517   26887
##  5 06    Califo…  917932  344896  201570    8966  124804    9556  573036  230361
##  6 08    Colora…  126848   55851   32307    1525   21379     640   70997   38819
##  7 09    Connec…  108002   38022   13581     910   22264    1267   69980   51718
##  8 10    Delawa…   22745    9755    4801     114    4585     255   12990   11045
##  9 11    Distri…   40682    5606    2278     315    2727     286   35076   23802
## 10 16    Idaho     49729   21271   10931     570    8955     815   28458   22521
## # … with 42 more rows, and 2 more variables: P5_009N <dbl>, P5_010N <dbl>
```
…
]

---

```r
vacancies_wide
```

```
## # A tibble: 83 × 4
##    GEOID NAME                     vacant_households total_households
##    <chr> <chr>                                <dbl>            <dbl>
##  1 26001 Alcona County, Michigan               5356            10263
##  2 26003 Alger County, Michigan                2560             6169
##  3 26005 Allegan County, Michigan              6244            51789
##  4 26007 Alpena County, Michigan               2744            15645
##  5 26009 Antrim County, Michigan               7391            17538
##  6 26011 Arenac County, Michigan               2873             9504
##  7 26013 Baraga County, Michigan               1724             5052
##  8 26015 Barry County, Michigan                3275            27351
##  9 26017 Bay County, Michigan                  3557            48562
## 10 26019 Benzie County, Michigan               4346            12099
## # … with 73 more rows
```
…
---

```r
arrange(tx_population, value)
```

```
## # A tibble: 254 × 4
##    GEOID NAME                   variable value
##    <chr> <chr>                  <chr>    <dbl>
##  1 48301 Loving County, Texas   P1_001N     64
##  2 48269 King County, Texas     P1_001N    265
##  3 48261 Kenedy County, Texas   P1_001N    350
##  4 48311 McMullen County, Texas P1_001N    600
##  5 48033 Borden County, Texas   P1_001N    631
##  6 48263 Kent County, Texas     P1_001N    753
##  7 48443 Terrell County, Texas  P1_001N    760
##  8 48393 Roberts County, Texas  P1_001N    827
##  9 48345 Motley County, Texas   P1_001N   1063
## 10 48155 Foard County, Texas    P1_001N   1095
## # … with 244 more rows
```

---

```r
arrange(tx_population, desc(value))
```

```
## # A tibble: 254 × 4
##    GEOID NAME                    variable   value
##    <chr> <chr>                   <chr>      <dbl>
##  1 48201 Harris County, Texas    P1_001N  4731145
##  2 48113 Dallas County, Texas    P1_001N  2613539
##  3 48439 Tarrant County, Texas   P1_001N  2110640
##  4 48029 Bexar County, Texas     P1_001N  2009324
##  5 48453 Travis County, Texas    P1_001N  1290188
##  6 48085 Collin County, Texas    P1_001N  1064465
##  7 48121 Denton County, Texas    P1_001N   906422
##  8 48215 Hidalgo County, Texas   P1_001N   870781
##  9 48141 El Paso County, Texas   P1_001N   865657
## 10 48157 Fort Bend County, Texas P1_001N   822779
## # … with 244 more rows
```
…
---

```r
az_race
```

```
## # A tibble: 90 × 5
##    GEOID NAME                     variable   value summary_value
##    <chr> <chr>                    <chr>      <dbl>         <dbl>
##  1 04001 Apache County, Arizona   Hispanic    3861         66021
##  2 04003 Cochise County, Arizona  Hispanic   42615        125447
##  3 04005 Coconino County, Arizona Hispanic   21719        145101
##  4 04007 Gila County, Arizona     Hispanic    9283         53272
##  5 04009 Graham County, Arizona   Hispanic   11428         38533
##  6 04011 Greenlee County, Arizona Hispanic    4376          9563
##  7 04012 La Paz County, Arizona   Hispanic    4197         16557
##  8 04013 Maricopa County, Arizona Hispanic 1351415       4420568
##  9 04015 Mohave County, Arizona   Hispanic   34126        213267
## 10 04017 Navajo County, Arizona   Hispanic   10887        106717
## # … with 80 more rows
```
…
```r
az_race_percent <- az_race %>%
  mutate(percent = 100 * (value / summary_value)) %>%
  select(NAME, variable, percent)
```

---

```r
az_race_percent
```

```
## # A tibble: 90 × 3
##    NAME                     variable percent
##    <chr>                    <chr>      <dbl>
##  1 Apache County, Arizona   Hispanic    5.85
##  2 Cochise County, Arizona  Hispanic   34.0 
##  3 Coconino County, Arizona Hispanic   15.0 
##  4 Gila County, Arizona     Hispanic   17.4 
##  5 Graham County, Arizona   Hispanic   29.7 
##  6 Greenlee County, Arizona Hispanic   45.8 
##  7 La Paz County, Arizona   Hispanic   25.3 
##  8 Maricopa County, Arizona Hispanic   30.6 
##  9 Mohave County, Arizona   Hispanic   16.0 
## 10 Navajo County, Arizona   Hispanic   10.2 
## # … with 80 more rows
```
…
## Getting data from the 2010 Census

```r
county_pop_10 <- get_decennial(
  geography = "county",
* variables = "P001001",
* year = 2010
)

county_pop_10
```

```
## # A tibble: 3,221 × 4
##    GEOID NAME                        variable  value
##    <chr> <chr>                       <chr>     <dbl>
##  1 05131 Sebastian County, Arkansas  P001001  125744
##  2 05133 Sevier County, Arkansas     P001001   17058
##  3 05135 Sharp County, Arkansas      P001001   17264
##  4 05137 Stone County, Arkansas      P001001   12394
##  5 05139 Union County, Arkansas      P001001   41639
##  6 05141 Van Buren County, Arkansas  P001001   17295
##  7 05143 Washington County, Arkansas P001001  203065
##  8 05145 White County, Arkansas      P001001   77076
##  9 05149 Yell County, Arkansas       P001001   22185
## 10 06011 Colusa County, California   P001001   21419
## # … with 3,211 more rows
```
---

## Cleanup before joining

* The `select()` function can both subset datasets by column and rename columns, "cleaning up" a dataset before joining to another dataset

```r
county_pop_10_clean <- county_pop_10 %>%
* select(GEOID, value10 = value)

county_pop_10_clean
```

```
## # A tibble: 3,221 × 2
##    GEOID value10
##    <chr>   <dbl>
##  1 05131  125744
##  2 05133   17058
##  3 05135   17264
##  4 05137   12394
##  5 05139   41639
##  6 05141   17295
##  7 05143  203065
##  8 05145   77076
##  9 05149   22185
## 10 06011   21419
## # … with 3,211 more rows
```
…
county_joined <- county_pop_20 %>%
* left_join(county_pop_10_clean, by = "GEOID")
```

---

```r
county_joined
```

```
## # A tibble: 3,221 × 4
##    GEOID NAME                    value20 value10
##    <chr> <chr>                     <dbl>   <dbl>
##  1 19013 Black Hawk County, Iowa  131144  131090
##  2 19003 Adams County, Iowa         3704    4029
##  3 19007 Appanoose County, Iowa    12317   12887
##  4 19009 Audubon County, Iowa       5674    6119
##  5 19015 Boone County, Iowa        26715   26306
##  6 19019 Buchanan County, Iowa     20565   20958
##  7 19023 Butler County, Iowa       14334   14867
##  8 19025 Calhoun County, Iowa       9927    9670
##  9 19029 Cass County, Iowa         13127   13956
## 10 19031 Cedar County, Iowa        18505   18499
## # … with 3,211 more rows
```
…
---

```r
county_change
```

```
## # A tibble: 3,221 × 6
##    GEOID NAME                    value20 value10 total_change percent_change
##    <chr> <chr>                     <dbl>   <dbl>        <dbl>          <dbl>
##  1 19013 Black Hawk County, Iowa  131144  131090           54         0.0412
##  2 19003 Adams County, Iowa         3704    4029         -325        -8.07  
##  3 19007 Appanoose County, Iowa    12317   12887         -570        -4.42  
##  4 19009 Audubon County, Iowa       5674    6119         -445        -7.27  
##  5 19015 Boone County, Iowa        26715   26306          409         1.55  
##  6 19019 Buchanan County, Iowa     20565   20958         -393        -1.88  
##  7 19023 Butler County, Iowa       14334   14867         -533        -3.59  
##  8 19025 Calhoun County, Iowa       9927    9670          257         2.66  
##  9 19029 Cass County, Iowa         13127   13956         -829        -5.94  
## 10 19031 Cedar County, Iowa        18505   18499            6         0.0324
## # … with 3,211 more rows
```
…
---

```r
ga_hispanic
```

```
## # A tibble: 159 × 5
##    GEOID NAME                       total hispanic percent
##    <chr> <chr>                      <dbl>    <dbl>   <dbl>
##  1 13009 Baldwin County, Georgia    43799     1139    2.60
##  2 13015 Bartow County, Georgia    108901    10751    9.87
##  3 13019 Berrien County, Georgia    18160     1045    5.75
##  4 13025 Brantley County, Georgia   18021      326    1.81
##  5 13031 Bulloch County, Georgia    81099     4180    5.15
##  6 13037 Calhoun County, Georgia     5573      149    2.67
##  7 13043 Candler County, Georgia    10981     1378   12.5 
##  8 13049 Charlton County, Georgia   12518     2036   16.3 
##  9 13055 Chattooga County, Georgia  24965     1297    5.20
## 10 13061 Clay County, Georgia        2848       41    1.44
## # … with 149 more rows
```
…
---

```r
nyc_percent_black
```

```
## # A tibble: 2,327 × 6
##    GEOID       NAME                         variable value summary_value percent
##    <chr>       <chr>                        <chr>    <dbl>         <dbl>   <dbl>
##  1 36047057300 Census Tract 573, Kings Cou… P2_006N     49          2590   1.89 
##  2 36047057000 Census Tract 570, Kings Cou… P2_006N    257          3534   7.27 
##  3 36047057100 Census Tract 571, Kings Cou… P2_006N     42          4267   0.984
##  4 36047057200 Census Tract 572, Kings Cou… P2_006N   2585          5221  49.5  
##  5 36047057400 Census Tract 574, Kings Cou… P2_006N     57          2560   2.23 
##  6 36047057500 Census Tract 575, Kings Cou… P2_006N     76          4902   1.55 
##  7 36047057600 Census Tract 576, Kings Cou… P2_006N     56          2912   1.92 
##  8 36047057800 Census Tract 578, Kings Cou… P2_006N     74          3332   2.22 
##  9 36047057901 Census Tract 579.01, Kings … P2_006N     70          1416   4.94 
## 10 36047057902 Census Tract 579.02, Kings … P2_006N      0             0 NaN    
## # … with 2,317 more rows
```
…
```r
nyc_percent_black2 <- nyc_percent_black %>%
  separate(NAME, into = c("tract", "county", "state"),
           sep = ", ")
```

---

```r
nyc_percent_black2
```

```
## # A tibble: 2,327 × 8
##    GEOID       tract        county   state  variable value summary_value percent
##    <chr>       <chr>        <chr>    <chr>  <chr>    <dbl>         <dbl>   <dbl>
##  1 36047057300 Census Trac… Kings C… New Y… P2_006N     49          2590   1.89 
##  2 36047057000 Census Trac… Kings C… New Y… P2_006N    257          3534   7.27 
##  3 36047057100 Census Trac… Kings C… New Y… P2_006N     42          4267   0.984
##  4 36047057200 Census Trac… Kings C… New Y… P2_006N   2585          5221  49.5  
##  5 36047057400 Census Trac… Kings C… New Y… P2_006N     57          2560   2.23 
##  6 36047057500 Census Trac… Kings C… New Y… P2_006N     76          4902   1.55 
##  7 36047057600 Census Trac… Kings C… New Y… P2_006N     56          2912   1.92 
##  8 36047057800 Census Trac… Kings C… New Y… P2_006N     74          3332   2.22 
##  9 36047057901 Census Trac… Kings C… New Y… P2_006N     70          1416   4.94 
## 10 36047057902 Census Trac… Kings C… New Y… P2_006N      0             0 NaN    
## # … with 2,317 more rows
```
…
